vhdl_code/ADC_161S/output_graph.vcd
$date
  Thu Apr 24 15:44:59 2025
$end
$version
  GHDL v0
$end
$timescale
  1 fs
$end
$scope module standard $end
$upscope $end
$scope module std_logic_1164 $end
$upscope $end
$scope module numeric_std $end
$upscope $end
$scope module utils $end
$upscope $end
$scope module adc_module_testbench $end
$var reg 1 ! adc_data_out $end
$var reg 1 " adc_chip_select $end
$var reg 1 # adc_serial_clock $end
$var reg 16 $ usb_data_in[15:0] $end
$var reg 1 % usb_data_flag $end
$var reg 1 & clock_12mhz $end
$var reg 1 ' test_complete $end
$var reg 16 ( expected_data[15:0] $end
$scope module uut $end
$var reg 1 ) master_clock $end
$var reg 1 * data_in $end
$var reg 1 + chip_select $end
$var reg 1 , serial_clock $end
$var reg 16 - data_out[15:0] $end
$var reg 1 . data_out_valid_flag $end
$comment fpga_state is not handled $end
$var reg 16 / data_buffer[15:0] $end
$var integer 32 0 cs_counter $end
$var reg 1 1 cs_clock_internal $end
$var integer 32 2 sclk_counter $end
$var reg 1 3 sclk_internal $end
$var integer 32 4 data_in_counter $end
$var reg 1 5 is_receiving $end
$upscope $end
$upscope $end
$enddefinitions $end
#0
Z!
1"
1#
b0000000000000000 $
0%
0&
0'
b0000000000000000 (
0)
Z*
1+
1,
b0000000000000000 -
0.
b0000000000000000 /
b0 0
11
b0 2
13
b0 4
05
#41666500
1&
1)
b1 0
#83333000
0&
0)
#100000000
#124999500
1&
1)
b10 0
#166666000
0&
0)
#208332500
1&
1)
b11 0
#249999000
0&
0)
#291665500
1&
1)
b100 0
#333332000
0&
0)
#374998500
1&
1)
b101 0
#416665000
0&
0)
#458331500
1&
1)
b110 0
#499998000
0&
0)
#541664500
1&
1)
b111 0
#583331000
0&
0)
#624997500
1&
1)
b1000 0
#666664000
0&
0)
#708330500
1&
1)
b1001 0
#749997000
0&
0)
#791663500
1&
1)
b1010 0
#833330000
0&
0)
#874996500
1&
1)
b1011 0
#916663000
0&
0)
#958329500
1&
1)
b1100 0
#999996000
0&
0)
#1041662500
1&
1)
b1101 0
#1083329000
0&
0)
#1124995500
1&
1)
b1110 0
#1166662000
0&
0)
#1208328500
1&
1)
b1111 0
#1249995000
0&
0)
#1291661500
1&
1)
b10000 0
#1333328000
0&
0)
#1374994500
1&
1)
b10001 0
#1416661000
0&
0)
#1458327500
1&
1)
b10010 0
#1499994000
0&
0)
#1541660500
1&
1)
b10011 0
#1583327000
0&
0)
#1624993500
1&
1)
b10100 0
#1666660000
0&
0)
#1708326500
1&
1)
b10101 0
#1749993000
0&
0)
#1791659500
1&
1)
b10110 0
#1833326000
0&
0)
#1874992500
1&
1)
b10111 0
#1916659000
0&
0)
#1958325500
1&
1)
b11000 0
#1999992000
0&
0)
#2041658500
1&
1)
b11001 0
#2083325000
0&
0)
#2124991500
1&
1)
b11010 0
#2166658000
0&
0)
#2208324500
1&
1)
b11011 0
#2249991000
0&
0)
#2291657500
1&
1)
b11100 0
#2333324000
0&
0)
#2374990500
1&
1)
b11101 0
#2416657000
0&
0)
#2458323500
1&
1)
b11110 0
#2499990000
0&
0)
#2541656500
1&
1)
b11111 0
#2583323000
0&
0)
#2624989500
1&
1)
b100000 0
#2666656000
0&
0)
#2708322500
1&
1)
b100001 0
#2749989000
0&
0)
#2791655500
1&
1)
b100010 0
#2833322000
0&
0)
#2874988500
1&
1)
b100011 0
#2916655000
0&
0)
#2958321500
1&
1)
b100100 0
#2999988000
0&
0)
#3041654500
1&
1)
b100101 0
#3083321000
0&
0)
#3124987500
1&
1)
b100110 0
#3166654000
0&
0)
#3208320500
1&
1)
b100111 0
#3249987000
0&
0)
#3291653500
1&
1)
b101000 0
#3333320000
0&
0)
#3374986500
1&
1)
b101001 0
#3416653000
0&
0)
#3458319500
1&
1)
b101010 0
#3499986000
0&
0)
#3541652500
1&
1)
b101011 0
#3583319000
0&
0)
#3624985500
1&
1)
b101100 0
#3666652000
0&
0)
#3708318500
1&
1)
b101101 0
#3749985000
0&
0)
#3791651500
1&
1)
b101110 0
#3833318000
0&
0)
#3874984500
1&
1)
b101111 0
#3916651000
0&
0)
#3958317500
1&
1)
b110000 0
#3999984000
0&
0)
#4041650500
1&
1)
b110001 0
#4083317000
0&
0)
#4124983500
1&
1)
b110010 0
#4166650000
0&
0)
#4208316500
1&
1)
b110011 0
#4249983000
0&
0)
#4291649500
1&
1)
b110100 0
#4333316000
0&
0)
#4374982500
1&
1)
b110101 0
#4416649000
0&
0)
#4458315500
1&
1)
b110110 0
#4499982000
0&
0)
#4541648500
1&
1)
b110111 0
#4583315000
0&
0)
#4624981500
1&
1)
b111000 0
#4666648000
0&
0)
#4708314500
1&
1)
b111001 0
#4749981000
0&
0)
#4791647500
1&
1)
b111010 0
#4833314000
0&
0)
#4874980500
1&
1)
b111011 0
#4916647000
0&
0)
#4958313500
1&
1)
b111100 0
#4999980000
0&
0)
#5041646500
1&
1)
b111101 0
#5083313000
0&
0)
#5124979500
1&
1)
b111110 0
#5166646000
0&
0)
#5208312500
1&
1)
b111111 0
#5249979000
0&
0)
#5291645500
1&
1)
b1000000 0
#5333312000
0&
0)
#5374978500
1&
1)
b1000001 0
#5416645000
0&
0)
#5458311500
1&
1)
b1000010 0
#5499978000
0&
0)
#5541644500
1&
1)
b1000011 0
#5583311000
0&
0)
#5624977500
1&
1)
b1000100 0
#5666644000
0&
0)
#5708310500
1&
1)
b1000101 0
#5749977000
0&
0)
#5791643500
1&
1)
b1000110 0
#5833310000
0&
0)
#5874976500
1&
1)
b1000111 0
#5916643000
0&
0)
#5958309500
1&
1)
b1001000 0
#5999976000
0&
0)
#6041642500
1&
1)
b1001001 0
#6083309000
0&
0)
#6124975500
1&
1)
b1001010 0
#6166642000
0&
0)
#6208308500
1&
1)
b1001011 0
#6249975000
0&
0)
#6291641500
1&
1)
b1001100 0
#6333308000
0&
0)
#6374974500
1&
1)
b1001101 0
#6416641000
0&
0)
#6458307500
1&
1)
b1001110 0
#6499974000
0&
0)
#6541640500
1&
1)
b1001111 0
#6583307000
0&
0)
#6624973500
1&
1)
b1010000 0
#6666640000
0&
0)
#6708306500
1&
1)
b1010001 0
#6749973000
0&
0)
#6791639500
1&
1)
b1010010 0
#6833306000
0&
0)
#6874972500
1&
1)
b1010011 0
#6916639000
0&
0)
#6958305500
1&
1)
b1010100 0
#6999972000
0&
0)
#7041638500
1&
1)
b1010101 0
#7083305000
0&
0)
#7124971500
1&
1)
b1010110 0
#7166638000
0&
0)
#7208304500
1&
1)
b1010111 0
#7249971000
0&
0)
#7291637500
1&
1)
b1011000 0
#7333304000
0&
0)
#7374970500
1&
1)
b1011001 0
#7416637000
0&
0)
#7458303500
1&
1)
b1011010 0
#7499970000
0&
0)
#7541636500
1&
1)
b1011011 0
#7583303000
0&
0)
#7624969500
1&
1)
b1011100 0
#7666636000
0&
0)
#7708302500
1&
1)
b1011101 0
#7749969000
0&
0)
#7791635500
1&
1)
b1011110 0
#7833302000
0&
0)
#7874968500
1&
1)
b1011111 0
#7916635000
0&
0)
#7958301500
1&
1)
b1100000 0
#7999968000
0&
0)
#8041634500
1&
1)
b1100001 0
#8083301000
0&
0)
#8124967500
1&
1)
b1100010 0
#8166634000
0&
0)
#8208300500
1&
1)
b1100011 0
#8249967000
0&
0)
#8291633500
1&
1)
b1100100 0
#8333300000
0&
0)
#8374966500
1&
1)
b1100101 0
#8416633000
0&
0)
#8458299500
1&
1)
b1100110 0
#8499966000
0&
0)
#8541632500
1&
1)
b1100111 0
#8583299000
0&
0)
#8624965500
1&
1)
b1101000 0
#8666632000
0&
0)
#8708298500
1&
1)
b1101001 0
#8749965000
0&
0)
#8791631500
1&
1)
b1101010 0
#8833298000
0&
0)
#8874964500
1&
1)
b1101011 0
#8916631000
0&
0)
#8958297500
1&
1)
b1101100 0
#8999964000
0&
0)
#9041630500
1&
1)
b1101101 0
#9083297000
0&
0)
#9124963500
1&
1)
b1101110 0
#9166630000
0&
0)
#9208296500
1&
1)
b1101111 0
#9249963000
0&
0)
#9291629500
1&
1)
b1110000 0
#9333296000
0&
0)
#9374962500
1&
1)
b1110001 0
#9416629000
0&
0)
#9458295500
1&
1)
b1110010 0
#9499962000
0&
0)
#9541628500
1&
1)
b1110011 0
#9583295000
0&
0)
#9624961500
1&
1)
b1110100 0
#9666628000
0&
0)
#9708294500
1&
1)
b1110101 0
#9749961000
0&
0)
#9791627500
1&
1)
b1110110 0
#9833294000
0&
0)
#9874960500
1&
1)
b1110111 0
#9916627000
0&
0)
#9958293500
1&
1)
b1111000 0
#9999960000
0&
0)
#10041626500
1&
1)
b1111001 0
#10083293000
0&
0)
#10124959500
1&
1)
b1111010 0
#10166626000
0&
0)
#10208292500
1&
1)
b1111011 0
#10249959000
0&
0)
#10291625500
1&
1)
b1111100 0
#10333292000
0&
0)
#10374958500
1&
1)
b1111101 0
#10416625000
0&
0)
#10458291500
1&
1)
b1111110 0
#10499958000
0&
0)
#10541624500
1&
1)
b1111111 0
#10583291000
0&
0)
#10624957500
1&
1)
b10000000 0
#10666624000
0&
0)
#10708290500
1&
1)
b10000001 0
#10749957000
0&
0)
#10791623500
1&
1)
b10000010 0
#10833290000
0&
0)
#10874956500
1&
1)
b10000011 0
#10916623000
0&
0)
#10958289500
1&
1)
b10000100 0
#10999956000
0&
0)
#11041622500
1&
1)
b10000101 0
#11083289000
0&
0)
#11124955500
1&
1)
b10000110 0
#11166622000
0&
0)
#11208288500
1&
1)
b10000111 0
#11249955000
0&
0)
#11291621500
1&
1)
b10001000 0
#11333288000
0&
0)
#11374954500
1&
1)
b10001001 0
#11416621000
0&
0)
#11458287500
1&
1)
b10001010 0
#11499954000
0&
0)
#11541620500
1&
1)
b10001011 0
#11583287000
0&
0)
#11624953500
1&
1)
b10001100 0
#11666620000
0&
0)
#11708286500
1&
1)
b10001101 0
#11749953000
0&
0)
#11791619500
1&
1)
b10001110 0
#11833286000
0&
0)
#11874952500
1&
1)
b10001111 0
#11916619000
0&
0)
#11958285500
1&
1)
b10010000 0
#11999952000
0&
0)
#12041618500
1&
1)
b10010001 0
#12083285000
0&
0)
#12124951500
1&
1)
b10010010 0
#12166618000
0&
0)
#12208284500
1&
1)
b10010011 0
#12249951000
0&
0)
#12291617500
1&
1)
b10010100 0
#12333284000
0&
0)
#12374950500
1&
1)
b10010101 0
#12416617000
0&
0)
#12458283500
1&
1)
b10010110 0
#12499950000
0&
0)
#12541616500
1&
1)
b10010111 0
#12583283000
0&
0)
#12624949500
1&
1)
b10011000 0
#12666616000
0&
0)
#12708282500
1&
1)
b10011001 0
#12749949000
0&
0)
#12791615500
1&
1)
b10011010 0
#12833282000
0&
0)
#12874948500
1&
1)
b10011011 0
#12916615000
0&
0)
#12958281500
1&
1)
b10011100 0
#12999948000
0&
0)
#13041614500
1&
1)
b10011101 0
#13083281000
0&
0)
#13124947500
1&
1)
b10011110 0
#13166614000
0&
0)
#13208280500
1&
1)
b10011111 0
#13249947000
0&
0)
#13291613500
1&
1)
b10100000 0
#13333280000
0&
0)
#13374946500
1&
1)
b10100001 0
#13416613000
0&
0)
#13458279500
1&
1)
b10100010 0
#13499946000
0&
0)
#13541612500
1&
1)
b10100011 0
#13583279000
0&
0)
#13624945500
1&
1)
b10100100 0
#13666612000
0&
0)
#13708278500
1&
1)
b10100101 0
#13749945000
0&
0)
#13791611500
1&
1)
b10100110 0
#13833278000
0&
0)
#13874944500
1&
1)
b10100111 0
#13916611000
0&
0)
#13958277500
1&
1)
b10101000 0
#13999944000
0&
0)
#14041610500
1&
1)
b10101001 0
#14083277000
0&
0)
#14124943500
1&
1)
b10101010 0
#14166610000
0&
0)
#14208276500
1&
1)
b10101011 0
#14249943000
0&
0)
#14291609500
1&
1)
b10101100 0
#14333276000
0&
0)
#14374942500
1&
1)
b10101101 0
#14416609000
0&
0)
#14458275500
1&
1)
b10101110 0
#14499942000
0&
0)
#14541608500
1&
1)
b10101111 0
#14583275000
0&
0)
#14624941500
1&
1)
b10110000 0
#14666608000
0&
0)
#14708274500
1&
1)
b10110001 0
#14749941000
0&
0)
#14791607500
1&
1)
b10110010 0
#14833274000
0&
0)
#14874940500
1&
1)
b10110011 0
#14916607000
0&
0)
#14958273500
1&
1)
b10110100 0
#14999940000
0&
0)
#15041606500
1&
1)
b10110101 0
#15083273000
0&
0)
#15124939500
1&
1)
b10110110 0
#15166606000
0&
0)
#15208272500
1&
1)
b10110111 0
#15249939000
0&
0)
#15291605500
1&
1)
b10111000 0
#15333272000
0&
0)
#15374938500
1&
1)
b10111001 0
#15416605000
0&
0)
#15458271500
1&
1)
b10111010 0
#15499938000
0&
0)
#15541604500
1&
1)
b10111011 0
#15583271000
0&
0)
#15624937500
1&
1)
b10111100 0
#15666604000
0&
0)
#15708270500
1&
1)
b10111101 0
#15749937000
0&
0)
#15791603500
1&
1)
b10111110 0
#15833270000
0&
0)
#15874936500
1&
1)
b10111111 0
#15916603000
0&
0)
#15958269500
1&
1)
b11000000 0
#15999936000
0&
0)
#16041602500
1&
1)
b11000001 0
#16083269000
0&
0)
#16124935500
1&
1)
b11000010 0
#16166602000
0&
0)
#16208268500
1&
1)
b11000011 0
#16249935000
0&
0)
#16291601500
1&
1)
b11000100 0
#16333268000
0&
0)
#16374934500
1&
1)
b11000101 0
#16416601000
0&
0)
#16458267500
1&
1)
b11000110 0
#16499934000
0&
0)
#16541600500
1&
1)
b11000111 0
#16583267000
0&
0)
#16624933500
1&
1)
b11001000 0
#16666600000
0&
0)
#16708266500
1&
1)
b11001001 0
#16749933000
0&
0)
#16791599500
1&
1)
b11001010 0
#16833266000
0&
0)
#16874932500
1&
1)
b11001011 0
#16916599000
0&
0)
#16958265500
1&
1)
b11001100 0
#16999932000
0&
0)
#17041598500
1&
1)
b11001101 0
#17083265000
0&
0)
#17124931500
1&
1)
b11001110 0
#17166598000
0&
0)
#17208264500
1&
1)
b11001111 0
#17249931000
0&
0)
#17291597500
1&
1)
b11010000 0
#17333264000
0&
0)
#17374930500
1&
1)
b11010001 0
#17416597000
0&
0)
#17458263500
1&
1)
b11010010 0
#17499930000
0&
0)
#17541596500
1&
1)
b11010011 0
#17583263000
0&
0)
#17624929500
1&
1)
b11010100 0
#17666596000
0&
0)
#17708262500
1&
1)
b11010101 0
#17749929000
0&
0)
#17791595500
1&
1)
b11010110 0
#17833262000
0&
0)
#17874928500
1&
1)
b11010111 0
#17916595000
0&
0)
#17958261500
1&
1)
b11011000 0
#17999928000
0&
0)
#18041594500
1&
1)
b11011001 0
#18083261000
0&
0)
#18124927500
1&
1)
b11011010 0
#18166594000
0&
0)
#18208260500
1&
1)
b11011011 0
#18249927000
0&
0)
#18291593500
1&
1)
b11011100 0
#18333260000
0&
0)
#18374926500
1&
1)
b11011101 0
#18416593000
0&
0)
#18458259500
1&
1)
b11011110 0
#18499926000
0&
0)
#18541592500
1&
1)
b11011111 0
#18583259000
0&
0)
#18624925500
1&
1)
b11100000 0
#18666592000
0&
0)
#18708258500
1&
1)
b11100001 0
#18749925000
0&
0)
#18791591500
1&
1)
b11100010 0
#18833258000
0&
0)
#18874924500
1&
1)
b11100011 0
#18916591000
0&
0)
#18958257500
1&
1)
b11100100 0
#18999924000
0&
0)
#19041590500
1&
1)
b11100101 0
#19083257000
0&
0)
#19124923500
1&
1)
b11100110 0
#19166590000
0&
0)
#19208256500
1&
1)
b11100111 0
#19249923000
0&
0)
#19291589500
1&
1)
b11101000 0
#19333256000
0&
0)
#19374922500
1&
1)
b11101001 0
#19416589000
0&
0)
#19458255500
1&
1)
b11101010 0
#19499922000
0&
0)
#19541588500
1&
1)
b11101011 0
#19583255000
0&
0)
#19624921500
1&
1)
b11101100 0
#19666588000
0&
0)
#19708254500
1&
1)
b11101101 0
#19749921000
0&
0)
#19791587500
1&
1)
b11101110 0
#19833254000
0&
0)
#19874920500
1&
1)
b11101111 0
#19916587000
0&
0)
#19958253500
1&
1)
b11110000 0
#19999920000
0&
0)
#20041586500
1&
1)
b11110001 0
#20083253000
0&
0)
#20124919500
1&
1)
b11110010 0
#20166586000
0&
0)
#20208252500
1&
1)
b11110011 0
#20249919000
0&
0)
#20291585500
1&
1)
b11110100 0
#20333252000
0&
0)
#20374918500
1&
1)
b11110101 0
#20416585000
0&
0)
#20458251500
1&
1)
b11110110 0
#20499918000
0&
0)
#20541584500
1&
1)
b11110111 0
#20583251000
0&
0)
#20624917500
1&
1)
b11111000 0
#20666584000
0&
0)
#20708250500
1&
1)
b11111001 0
#20749917000
0&
0)
#20791583500
1&
1)
b11111010 0
#20833250000
0&
0)
#20874916500
1&
1)
b11111011 0
#20916583000
0&
0)
#20958249500
1&
1)
b11111100 0
#20999916000
0&
0)
#21041582500
1&
1)
b11111101 0
#21083249000
0&
0)
#21124915500
1&
1)
b11111110 0
#21166582000
0&
0)
#21208248500
1&
1)
b11111111 0
#21249915000
0&
0)
#21291581500
1&
1)
b100000000 0
#21333248000
0&
0)
#21374914500
1&
1)
b100000001 0
#21416581000
0&
0)
#21458247500
1&
1)
b100000010 0
#21499914000
0&
0)
#21541580500
1&
1)
b100000011 0
#21583247000
0&
0)
#21624913500
1&
1)
b100000100 0
#21666580000
0&
0)
#21708246500
1&
1)
b100000101 0
#21749913000
0&
0)
#21791579500
1&
1)
b100000110 0
#21833246000
0&
0)
#21874912500
1&
1)
b100000111 0
#21916579000
0&
0)
#21958245500
1&
1)
b100001000 0
#21999912000
0&
0)
#22041578500
1&
1)
b100001001 0
#22083245000
0&
0)
#22124911500
1&
1)
b100001010 0
#22166578000
0&
0)
#22208244500
1&
1)
b100001011 0
#22249911000
0&
0)
#22291577500
1&
1)
b100001100 0
#22333244000
0&
0)
#22374910500
1&
1)
b100001101 0
#22416577000
0&
0)
#22458243500
1&
1)
b100001110 0
#22499910000
0&
0)
#22541576500
1&
1)
b100001111 0
#22583243000
0&
0)
#22624909500
1&
1)
b100010000 0
#22666576000
0&
0)
#22708242500
1&
1)
b100010001 0
#22749909000
0&
0)
#22791575500
1&
1)
b100010010 0
#22833242000
0&
0)
#22874908500
1&
1)
b100010011 0
#22916575000
0&
0)
#22958241500
1&
1)
b100010100 0
#22999908000
0&
0)
#23041574500
1&
1)
b100010101 0
#23083241000
0&
0)
#23124907500
1&
1)
b100010110 0
#23166574000
0&
0)
#23208240500
1&
1)
b100010111 0
#23249907000
0&
0)
#23291573500
1&
1)
b100011000 0
#23333240000
0&
0)
#23374906500
1&
1)
b100011001 0
#23416573000
0&
0)
#23458239500
1&
1)
b100011010 0
#23499906000
0&
0)
#23541572500
1&
1)
b100011011 0
#23583239000
0&
0)
#23624905500
1&
1)
b100011100 0
#23666572000
0&
0)
#23708238500
1&
1)
b100011101 0
#23749905000
0&
0)
#23791571500
1&
1)
b100011110 0
#23833238000
0&
0)
#23874904500
1&
1)
b100011111 0
#23916571000
0&
0)
#23958237500
1&
1)
b100100000 0
#23999904000
0&
0)
#24041570500
1&
1)
b100100001 0
#24083237000
0&
0)
#24124903500
1&
1)
b100100010 0
#24166570000
0&
0)
#24208236500
1&
1)
b100100011 0
#24249903000
0&
0)
#24291569500
1&
1)
b100100100 0
#24333236000
0&
0)
#24374902500
1&
1)
b100100101 0
#24416569000
0&
0)
#24458235500
1&
1)
b100100110 0
#24499902000
0&
0)
#24541568500
1&
1)
b100100111 0
#24583235000
0&
0)
#24624901500
1&
1)
b100101000 0
#24666568000
0&
0)
#24708234500
1&
1)
b100101001 0
#24749901000
0&
0)
#24791567500
1&
1)
b100101010 0
#24833234000
0&
0)
#24874900500
1&
1)
b100101011 0
#24916567000
0&
0)
#24958233500
1&
1)
b100101100 0
#24999900000
0&
0)
#25041566500
1&
1)
b100101101 0
#25083233000
0&
0)
#25124899500
1&
1)
b100101110 0
#25166566000
0&
0)
#25208232500
1&
1)
b100101111 0
#25249899000
0&
0)
#25291565500
1&
1)
b100110000 0
#25333232000
0&
0)
#25374898500
1&
1)
b100110001 0
#25416565000
0&
0)
#25458231500
1&
1)
b100110010 0
#25499898000
0&
0)
#25541564500
1&
1)
b100110011 0
#25583231000
0&
0)
#25624897500
1&
1)
b100110100 0
#25666564000
0&
0)
#25708230500
1&
1)
b100110101 0
#25749897000
0&
0)
#25791563500
1&
1)
b100110110 0
#25833230000
0&
0)
#25874896500
1&
1)
b100110111 0
#25916563000
0&
0)
#25958229500
1&
1)
b100111000 0
#25999896000
0&
0)
#26041562500
1&
1)
b100111001 0
#26083229000
0&
0)
#26124895500
1&
1)
b100111010 0
#26166562000
0&
0)
#26208228500
1&
1)
b100111011 0
#26249895000
0&
0)
#26291561500
1&
1)
b100111100 0
#26333228000
0&
0)
#26374894500
1&
1)
b100111101 0
#26416561000
0&
0)
#26458227500
1&
1)
b100111110 0
#26499894000
0&
0)
#26541560500
1&
1)
b100111111 0
#26583227000
0&
0)
#26624893500
1&
1)
b101000000 0
#26666560000
0&
0)
#26708226500
1&
1)
b101000001 0
#26749893000
0&
0)
#26791559500
1&
1)
b101000010 0
#26833226000
0&
0)
#26874892500
1&
1)
b101000011 0
#26916559000
0&
0)
#26958225500
1&
1)
b101000100 0
#26999892000
0&
0)
#27041558500
1&
1)
b101000101 0
#27083225000
0&
0)
#27124891500
1&
1)
b101000110 0
#27166558000
0&
0)
#27208224500
1&
1)
b101000111 0
#27249891000
0&
0)
#27291557500
1&
1)
b101001000 0
#27333224000
0&
0)
#27374890500
1&
1)
b101001001 0
#27416557000
0&
0)
#27458223500
1&
1)
b101001010 0
#27499890000
0&
0)
#27541556500
1&
1)
b101001011 0
#27583223000
0&
0)
#27624889500
1&
1)
b101001100 0
#27666556000
0&
0)
#27708222500
1&
1)
b101001101 0
#27749889000
0&
0)
#27791555500
1&
1)
b101001110 0
#27833222000
0&
0)
#27874888500
1&
1)
b101001111 0
#27916555000
0&
0)
#27958221500
1&
1)
b101010000 0
#27999888000
0&
0)
#28041554500
1&
1)
b101010001 0
#28083221000
0&
0)
#28124887500
1&
1)
b101010010 0
#28166554000
0&
0)
#28208220500
1&
1)
b101010011 0
#28249887000
0&
0)
#28291553500
1&
1)
b101010100 0
#28333220000
0&
0)
#28374886500
1&
1)
b101010101 0
#28416553000
0&
0)
#28458219500
1&
1)
b101010110 0
#28499886000
0&
0)
#28541552500
1&
1)
b101010111 0
#28583219000
0&
0)
#28624885500
1&
1)
b101011000 0
#28666552000
0&
0)
#28708218500
1&
1)
b101011001 0
#28749885000
0&
0)
#28791551500
1&
1)
b101011010 0
#28833218000
0&
0)
#28874884500
1&
1)
b101011011 0
#28916551000
0&
0)
#28958217500
1&
1)
b101011100 0
#28999884000
0&
0)
#29041550500
1&
1)
b101011101 0
#29083217000
0&
0)
#29124883500
1&
1)
b101011110 0
#29166550000
0&
0)
#29208216500
1&
1)
b101011111 0
#29249883000
0&
0)
#29291549500
1&
1)
b101100000 0
#29333216000
0&
0)
#29374882500
1&
1)
b101100001 0
#29416549000
0&
0)
#29458215500
1&
1)
b101100010 0
#29499882000
0&
0)
#29541548500
1&
1)
b101100011 0
#29583215000
0&
0)
#29624881500
1&
1)
b101100100 0
#29666548000
0&
0)
#29708214500
1&
1)
b101100101 0
#29749881000
0&
0)
#29791547500
1&
1)
b101100110 0
#29833214000
0&
0)
#29874880500
1&
1)
b101100111 0
#29916547000
0&
0)
#29958213500
1&
1)
b101101000 0
#29999880000
0&
0)
#30041546500
1&
1)
b101101001 0
#30083213000
0&
0)
#30124879500
1&
1)
b101101010 0
#30166546000
0&
0)
#30208212500
1&
1)
b101101011 0
#30249879000
0&
0)
#30291545500
1&
1)
b101101100 0
#30333212000
0&
0)
#30374878500
1&
1)
b101101101 0
#30416545000
0&
0)
#30458211500
1&
1)
b101101110 0
#30499878000
0&
0)
#30541544500
1&
1)
b101101111 0
#30583211000
0&
0)
#30624877500
1&
1)
b101110000 0
#30666544000
0&
0)
#30708210500
1&
1)
b101110001 0
#30749877000
0&
0)
#30791543500
1&
1)
b101110010 0
#30833210000
0&
0)
#30874876500
1&
1)
b101110011 0
#30916543000
0&
0)
#30958209500
1&
1)
b101110100 0
#30999876000
0&
0)
#31041542500
1&
1)
b101110101 0
#31083209000
0&
0)
#31124875500
1&
1)
b101110110 0
#31166542000
0&
0)
#31208208500
1&
1)
b101110111 0
#31249875000
0&
0)
#31291541500
1&
1)
b101111000 0
#31333208000
0&
0)
#31374874500
1&
1)
b101111001 0
#31416541000
0&
0)
#31458207500
1&
1)
b101111010 0
#31499874000
0&
0)
#31541540500
1&
1)
b101111011 0
#31583207000
0&
0)
#31624873500
1&
1)
b101111100 0
#31666540000
0&
0)
#31708206500
1&
1)
b101111101 0
#31749873000
0&
0)
#31791539500
1&
1)
b101111110 0
#31833206000
0&
0)
#31874872500
1&
1)
b101111111 0
#31916539000
0&
0)
#31958205500
1&
1)
b110000000 0
#31999872000
0&
0)
#32041538500
1&
1)
b110000001 0
#32083205000
0&
0)
#32124871500
1&
1)
b110000010 0
#32166538000
0&
0)
#32208204500
1&
1)
b110000011 0
#32249871000
0&
0)
#32291537500
1&
1)
b110000100 0
#32333204000
0&
0)
#32374870500
1&
1)
b110000101 0
#32416537000
0&
0)
#32458203500
1&
1)
b110000110 0
#32499870000
0&
0)
#32541536500
1&
1)
b110000111 0
#32583203000
0&
0)
#32624869500
1&
1)
b110001000 0
#32666536000
0&
0)
#32708202500
1&
1)
b110001001 0
#32749869000
0&
0)
#32791535500
1&
1)
b110001010 0
#32833202000
0&
0)
#32874868500
1&
1)
b110001011 0
#32916535000
0&
0)
#32958201500
1&
1)
b110001100 0
#32999868000
0&
0)
#33041534500
1&
1)
b110001101 0
#33083201000
0&
0)
#33124867500
1&
1)
b110001110 0
#33166534000
0&
0)
#33208200500
1&
1)
b110001111 0
#33249867000
0&
0)
#33291533500
1&
1)
b110010000 0
#33333200000
0&
0)
#33374866500
1&
1)
b110010001 0
#33416533000
0&
0)
#33458199500
1&
1)
b110010010 0
#33499866000
0&
0)
#33541532500
1&
1)
b110010011 0
#33583199000
0&
0)
#33624865500
1&
1)
b110010100 0
#33666532000
0&
0)
#33708198500
1&
1)
b110010101 0
#33749865000
0&
0)
#33791531500
1&
1)
b110010110 0
#33833198000
0&
0)
#33874864500
1&
1)
b110010111 0
#33916531000
0&
0)
#33958197500
1&
1)
b110011000 0
#33999864000
0&
0)
#34041530500
1&
1)
b110011001 0
#34083197000
0&
0)
#34124863500
1&
1)
b110011010 0
#34166530000
0&
0)
#34208196500
1&
1)
b110011011 0
#34249863000
0&
0)
#34291529500
1&
1)
b110011100 0
#34333196000
0&
0)
#34374862500
1&
1)
b110011101 0
#34416529000
0&
0)
#34458195500
1&
1)
b110011110 0
#34499862000
0&
0)
#34541528500
1&
1)
b110011111 0
#34583195000
0&
0)
#34624861500
1&
1)
b110100000 0
#34666528000
0&
0)
#34708194500
1&
1)
b110100001 0
#34749861000
0&
0)
#34791527500
1&
1)
b110100010 0
#34833194000
0&
0)
#34874860500
1&
1)
b110100011 0
#34916527000
0&
0)
#34958193500
1&
1)
b110100100 0
#34999860000
0&
0)
#35041526500
1&
1)
b110100101 0
#35083193000
0&
0)
#35124859500
1&
1)
b110100110 0
#35166526000
0&
0)
#35208192500
1&
1)
b110100111 0
#35249859000
0&
0)
#35291525500
1&
1)
b110101000 0
#35333192000
0&
0)
#35374858500
1&
1)
b110101001 0
#35416525000
0&
0)
#35458191500
1&
1)
b110101010 0
#35499858000
0&
0)
#35541524500
1&
1)
b110101011 0
#35583191000
0&
0)
#35624857500
1&
1)
b110101100 0
#35666524000
0&
0)
#35708190500
1&
1)
b110101101 0
#35749857000
0&
0)
#35791523500
1&
1)
b110101110 0
#35833190000
0&
0)
#35874856500
1&
1)
b110101111 0
#35916523000
0&
0)
#35958189500
1&
1)
b110110000 0
#35999856000
0&
0)
#36041522500
1&
1)
b110110001 0
#36083189000
0&
0)
#36124855500
1&
1)
b110110010 0
#36166522000
0&
0)
#36208188500
1&
1)
b110110011 0
#36249855000
0&
0)
#36291521500
1&
1)
b110110100 0
#36333188000
0&
0)
#36374854500
1&
1)
b110110101 0
#36416521000
0&
0)
#36458187500
1&
1)
b110110110 0
#36499854000
0&
0)
#36541520500
1&
1)
b110110111 0
#36583187000
0&
0)
#36624853500
1&
1)
b110111000 0
#36666520000
0&
0)
#36708186500
1&
1)
b110111001 0
#36749853000
0&
0)
#36791519500
1&
1)
b110111010 0
#36833186000
0&
0)
#36874852500
1&
1)
b110111011 0
#36916519000
0&
0)
#36958185500
1&
1)
b110111100 0
#36999852000
0&
0)
#37041518500
1&
1)
b110111101 0
#37083185000
0&
0)
#37124851500
1&
1)
b110111110 0
#37166518000
0&
0)
#37208184500
1&
1)
b110111111 0
#37249851000
0&
0)
#37291517500
1&
1)
b111000000 0
#37333184000
0&
0)
#37374850500
1&
1)
b111000001 0
#37416517000
0&
0)
#37458183500
1&
1)
b111000010 0
#37499850000
0&
0)
#37541516500
1&
1)
b111000011 0
#37583183000
0&
0)
#37624849500
1&
1)
b111000100 0
#37666516000
0&
0)
#37708182500
1&
1)
b111000101 0
#37749849000
0&
0)
#37791515500
1&
1)
b111000110 0
#37833182000
0&
0)
#37874848500
1&
1)
b111000111 0
#37916515000
0&
0)
#37958181500
1&
1)
b111001000 0
#37999848000
0&
0)
#38041514500
1&
1)
b111001001 0
#38083181000
0&
0)
#38124847500
1&
1)
b111001010 0
#38166514000
0&
0)
#38208180500
1&
1)
b111001011 0
#38249847000
0&
0)
#38291513500
1&
1)
b111001100 0
#38333180000
0&
0)
#38374846500
1&
1)
b111001101 0
#38416513000
0&
0)
#38458179500
1&
1)
b111001110 0
#38499846000
0&
0)
#38541512500
1&
1)
b111001111 0
#38583179000
0&
0)
#38624845500
1&
1)
b111010000 0
#38666512000
0&
0)
